Warning: Failed to load enc/dyl_key_secrets.yaml with A vault password must be specified to decrypt data, assuming is not a playbook.
Warning: Failed to load enc/dyl_mail_secrets.yaml with A vault password must be specified to decrypt data, assuming is not a playbook.
Warning: Failed to load enc/sfco_key_secrets.yaml with A vault password must be specified to decrypt data, assuming is not a playbook.
Warning: Failed to load enc/sfco_mail_secrets.yaml with A vault password must be specified to decrypt data, assuming is not a playbook.
roles/addusers/tasks/main.yaml:1: [E403] [VERY_LOW] Package installs should not use latest
roles/addusers/tasks/main.yaml:27: [E301] [HIGH] Commands should not change things if nothing needs doing
roles/addusers/tasks/main.yaml:27: [E305] [HIGH] Use shell only when shell functionality is required
roles/addusers/tasks/main.yaml:41: [E305] [HIGH] Use shell only when shell functionality is required
roles/addusers/tasks/main.yaml:60: [E601] [HIGH] Don't compare to literal True/False
roles/addusers/tasks/main.yaml:63: [E301] [HIGH] Commands should not change things if nothing needs doing
roles/addusers/tasks/main.yaml:67: [E301] [HIGH] Commands should not change things if nothing needs doing
roles/addusers/tasks/main.yaml:70: [E202] [VERY_HIGH] Octal file permissions must contain leading zero or be a string
roles/addusers/tasks/main.yaml:80: [E301] [HIGH] Commands should not change things if nothing needs doing
roles/addusers/tasks/main.yaml:83: [E301] [HIGH] Commands should not change things if nothing needs doing
roles/addusers/tasks/main.yaml:9: [E403] [VERY_LOW] Package installs should not use latest
roles/bashprofile/tasks/main.yaml:25: [E305] [HIGH] Use shell only when shell functionality is required
roles/bashprofile/tasks/main.yaml:27: [E201] [INFO] Trailing whitespace
roles/bashprofile/tasks/main.yaml:28: [E601] [HIGH] Don't compare to literal True/False
roles/certs/tasks/main.yaml:12: [E102] [HIGH] No Jinja2 in when
roles/certs/tasks/main.yaml:1: [E102] [HIGH] No Jinja2 in when
roles/certs/tasks/main.yaml:6: [E102] [HIGH] No Jinja2 in when
roles/clamav/tasks/main.yaml:115: [E601] [HIGH] Don't compare to literal True/False
roles/clamav/tasks/main.yaml:121: [E601] [HIGH] Don't compare to literal True/False
roles/clamav/tasks/main.yaml:142: [E305] [HIGH] Use shell only when shell functionality is required
roles/clamav/tasks/main.yaml:147: [E601] [HIGH] Don't compare to literal True/False
roles/clamav/tasks/main.yaml:149: [E305] [HIGH] Use shell only when shell functionality is required
roles/clamav/tasks/main.yaml:154: [E601] [HIGH] Don't compare to literal True/False
roles/clamav/tasks/main.yaml:165: [E601] [HIGH] Don't compare to literal True/False
roles/clamav/tasks/main.yaml:16: [E601] [HIGH] Don't compare to literal True/False
roles/clamav/tasks/main.yaml:174: [E601] [HIGH] Don't compare to literal True/False
roles/clamav/tasks/main.yaml:23: [E601] [HIGH] Don't compare to literal True/False
roles/clamav/tasks/main.yaml:25: [E305] [HIGH] Use shell only when shell functionality is required
roles/clamav/tasks/main.yaml:34: [E601] [HIGH] Don't compare to literal True/False
roles/clamav/tasks/main.yaml:36: [E403] [VERY_LOW] Package installs should not use latest
roles/clamav/tasks/main.yaml:48: [E601] [HIGH] Don't compare to literal True/False
roles/clamav/tasks/main.yaml:54: [E601] [HIGH] Don't compare to literal True/False
roles/clamav/tasks/main.yaml:5: [E601] [HIGH] Don't compare to literal True/False
roles/clamav/tasks/main.yaml:62: [E601] [HIGH] Don't compare to literal True/False
roles/clamav/tasks/main.yaml:64: [E202] [VERY_HIGH] Octal file permissions must contain leading zero or be a string
roles/clamav/tasks/main.yaml:71: [E601] [HIGH] Don't compare to literal True/False
roles/clamav/tasks/main.yaml:78: [E601] [HIGH] Don't compare to literal True/False
roles/clamav/tasks/main.yaml:7: [E403] [VERY_LOW] Package installs should not use latest
roles/clamav/tasks/main.yaml:86: [E601] [HIGH] Don't compare to literal True/False
roles/clamav/tasks/main.yaml:94: [E301] [HIGH] Commands should not change things if nothing needs doing
roles/clamav/tasks/main.yaml:94: [E305] [HIGH] Use shell only when shell functionality is required
roles/clamav/tasks/main.yaml:9: [E204] [VERY_LOW] Lines should be no longer than 160 chars
roles/cleanup/tasks/main.yaml:19: [E601] [HIGH] Don't compare to literal True/False
roles/cleanup/tasks/main.yaml:27: [E301] [HIGH] Commands should not change things if nothing needs doing
roles/cleanup/tasks/main.yaml:42: [E601] [HIGH] Don't compare to literal True/False
roles/cleanup/tasks/main.yaml:54: [E403] [VERY_LOW] Package installs should not use latest
roles/cleanup/tasks/main.yaml:6: [E601] [HIGH] Don't compare to literal True/False
roles/crons/tasks/main.yaml:127: [E502] [MEDIUM] All tasks should be named
roles/crons/tasks/main.yaml:14: [E204] [VERY_LOW] Lines should be no longer than 160 chars
roles/crons/tasks/main.yaml:17: [E502] [MEDIUM] All tasks should be named
roles/crons/tasks/main.yaml:1: [E502] [MEDIUM] All tasks should be named
roles/crons/tasks/main.yaml:5: [E204] [VERY_LOW] Lines should be no longer than 160 chars
roles/crons/tasks/main.yaml:87: [E102] [HIGH] No Jinja2 in when
roles/crons/tasks/main.yaml:8: [E502] [MEDIUM] All tasks should be named
roles/digomon/tasks/main.yaml:1: [E403] [VERY_LOW] Package installs should not use latest
roles/digomon/tasks/main.yaml:22: [E303] [HIGH] curl used in place of get_url or uri module
roles/digomon/tasks/main.yaml:6: [E301] [HIGH] Commands should not change things if nothing needs doing
roles/digomon/tasks/main.yaml:6: [E306] [MEDIUM] Shells that use pipes should set the pipefail option
roles/dovecot/tasks/main.yaml:10: [E601] [HIGH] Don't compare to literal True/False
roles/dovecot/tasks/main.yaml:12: [E403] [VERY_LOW] Package installs should not use latest
roles/dovecot/tasks/main.yaml:5: [E601] [HIGH] Don't compare to literal True/False
roles/dovecot/tasks/main.yaml:7: [E502] [MEDIUM] All tasks should be named
roles/epel/tasks/main.yaml:6: [E403] [VERY_LOW] Package installs should not use latest
roles/fail2ban/tasks/main.yaml:26: [E601] [HIGH] Don't compare to literal True/False
roles/fail2ban/tasks/main.yaml:39: [E601] [HIGH] Don't compare to literal True/False
roles/fail2ban/tasks/main.yaml:41: [E403] [VERY_LOW] Package installs should not use latest
roles/fail2ban/tasks/main.yaml:78: [E601] [HIGH] Don't compare to literal True/False
roles/fortune/tasks/main.yaml:142: [E305] [HIGH] Use shell only when shell functionality is required
roles/fortune/tasks/main.yaml:160: [E601] [HIGH] Don't compare to literal True/False
roles/fortune/tasks/main.yaml:17: [E403] [VERY_LOW] Package installs should not use latest
roles/fortune/tasks/main.yaml:24: [E403] [VERY_LOW] Package installs should not use latest
roles/fortune/tasks/main.yaml:29: [E202] [VERY_HIGH] Octal file permissions must contain leading zero or be a string
roles/fortune/tasks/main.yaml:37: [E601] [HIGH] Don't compare to literal True/False
roles/fortune/tasks/main.yaml:39: [E202] [VERY_HIGH] Octal file permissions must contain leading zero or be a string
roles/fortune/tasks/main.yaml:47: [E601] [HIGH] Don't compare to literal True/False
roles/fortune/tasks/main.yaml:49: [E202] [VERY_HIGH] Octal file permissions must contain leading zero or be a string
roles/fortune/tasks/main.yaml:72: [E403] [VERY_LOW] Package installs should not use latest
roles/fortune/tasks/sm_on_note.yaml:16: [E204] [VERY_LOW] Lines should be no longer than 160 chars
roles/fortune/tasks/sm_on_note.yaml:32: [E301] [HIGH] Commands should not change things if nothing needs doing
roles/fortune/tasks/sm_on_note.yaml:32: [E305] [HIGH] Use shell only when shell functionality is required
roles/glances/tasks/main.yaml:13: [E403] [VERY_LOW] Package installs should not use latest
roles/glances/tasks/main.yaml:3: [E403] [VERY_LOW] Package installs should not use latest
roles/grafana/tasks/main.yaml:31: [E403] [VERY_LOW] Package installs should not use latest
roles/grafana/tasks/main.yaml:34: [E201] [INFO] Trailing whitespace
roles/grafana/tasks/main.yaml:43: [E601] [HIGH] Don't compare to literal True/False
roles/grafana/tasks/main.yaml:51: [E601] [HIGH] Don't compare to literal True/False
roles/grafana/tasks/main.yaml:6: [E403] [VERY_LOW] Package installs should not use latest
roles/hostname/tasks/main.yaml:138: [E301] [HIGH] Commands should not change things if nothing needs doing
roles/hostname/tasks/main.yaml:138: [E302] [VERY_HIGH] rm used in place of argument state=absent to file module
roles/hostname/tasks/main.yaml:138: [E502] [MEDIUM] All tasks should be named
roles/hostname/tasks/main.yaml:167: [E601] [HIGH] Don't compare to literal True/False
roles/hostname/tasks/main.yaml:175: [E601] [HIGH] Don't compare to literal True/False
roles/hostname/tasks/main.yaml:186: [E601] [HIGH] Don't compare to literal True/False
roles/hostname/tasks/main.yaml:193: [E601] [HIGH] Don't compare to literal True/False
roles/hostname/tasks/main.yaml:199: [E601] [HIGH] Don't compare to literal True/False
roles/hostname/tasks/main.yaml:1: [E403] [VERY_LOW] Package installs should not use latest
roles/hostname/tasks/main.yaml:206: [E601] [HIGH] Don't compare to literal True/False
roles/hostname/tasks/main.yaml:218: [E601] [HIGH] Don't compare to literal True/False
roles/hostname/tasks/main.yaml:226: [E601] [HIGH] Don't compare to literal True/False
roles/hostname/tasks/main.yaml:232: [E601] [HIGH] Don't compare to literal True/False
roles/hostname/tasks/main.yaml:31: [E301] [HIGH] Commands should not change things if nothing needs doing
roles/hostname/tasks/main.yaml:38: [E301] [HIGH] Commands should not change things if nothing needs doing
roles/hostname/tasks/main.yaml:70: [E301] [HIGH] Commands should not change things if nothing needs doing
roles/influx/tasks/main.yaml:14: [E403] [VERY_LOW] Package installs should not use latest
roles/influx/tasks/main.yaml:24: [E601] [HIGH] Don't compare to literal True/False
roles/influx/tasks/main.yaml:31: [E601] [HIGH] Don't compare to literal True/False
roles/iptables/tasks/main.yaml:39: [E301] [HIGH] Commands should not change things if nothing needs doing
roles/iptables/tasks/main.yaml:39: [E305] [HIGH] Use shell only when shell functionality is required
roles/iptables/tasks/main.yaml:49: [E601] [HIGH] Don't compare to literal True/False
roles/iptables/tasks/main.yaml:6: [E403] [VERY_LOW] Package installs should not use latest
roles/kernel/tasks/main.yaml:13: [E303] [HIGH] rpm used in place of yum or rpm_key module
roles/kernel/tasks/main.yaml:15: [E601] [HIGH] Don't compare to literal True/False
roles/kernel/tasks/main.yaml:1: [E301] [HIGH] Commands should not change things if nothing needs doing
roles/kernel/tasks/main.yaml:27: [E303] [HIGH] yum used in place of yum module
roles/kernel/tasks/main.yaml:44: [E305] [HIGH] Use shell only when shell functionality is required
roles/kernel/tasks/main.yaml:49: [E301] [HIGH] Commands should not change things if nothing needs doing
roles/kernel/tasks/main.yaml:52: [E301] [HIGH] Commands should not change things if nothing needs doing
roles/letsencrypt/tasks/main.yaml:118: [E204] [VERY_LOW] Lines should be no longer than 160 chars
roles/letsencrypt/tasks/main.yaml:11: [E403] [VERY_LOW] Package installs should not use latest
roles/letsencrypt/tasks/main.yaml:151: [E601] [HIGH] Don't compare to literal True/False
roles/letsencrypt/tasks/main.yaml:18: [E403] [VERY_LOW] Package installs should not use latest
roles/letsencrypt/tasks/main.yaml:223: [E601] [HIGH] Don't compare to literal True/False
roles/letsencrypt/tasks/main.yaml:235: [E305] [HIGH] Use shell only when shell functionality is required
roles/letsencrypt/tasks/main.yaml:24: [E403] [VERY_LOW] Package installs should not use latest
roles/letsencrypt/tasks/main.yaml:280: [E601] [HIGH] Don't compare to literal True/False
roles/letsencrypt/tasks/main.yaml:286: [E601] [HIGH] Don't compare to literal True/False
roles/letsencrypt/tasks/main.yaml:292: [E601] [HIGH] Don't compare to literal True/False
roles/letsencrypt/tasks/main.yaml:301: [E601] [HIGH] Don't compare to literal True/False
roles/letsencrypt/tasks/main.yaml:303: [E305] [HIGH] Use shell only when shell functionality is required
roles/letsencrypt/tasks/main.yaml:305: [E601] [HIGH] Don't compare to literal True/False
roles/letsencrypt/tasks/main.yaml:316: [E301] [HIGH] Commands should not change things if nothing needs doing
roles/letsencrypt/tasks/main.yaml:316: [E306] [MEDIUM] Shells that use pipes should set the pipefail option
roles/letsencrypt/tasks/main.yaml:38: [E403] [VERY_LOW] Package installs should not use latest
roles/letsencrypt/tasks/main.yaml:60: [E401] [MEDIUM] Git checkouts must contain explicit version
roles/letsencrypt/tasks/main.yaml:67: [E601] [HIGH] Don't compare to literal True/False
roles/letsencrypt/tasks/main.yaml:75: [E601] [HIGH] Don't compare to literal True/False
roles/mailgraph/tasks/main.yaml:24: [E502] [MEDIUM] All tasks should be named
roles/mailgraph/tasks/main.yaml:29: [E301] [HIGH] Commands should not change things if nothing needs doing
roles/mailgraph/tasks/main.yaml:29: [E302] [VERY_HIGH] ln used in place of argument state=link to file module
roles/mailgraph/tasks/main.yaml:56: [E403] [VERY_LOW] Package installs should not use latest
roles/mailgraph/tasks/main.yaml:6: [E403] [VERY_LOW] Package installs should not use latest
roles/mailstats/tasks/main.yaml:20: [E301] [HIGH] Commands should not change things if nothing needs doing
roles/mailstats/tasks/main.yaml:25: [E301] [HIGH] Commands should not change things if nothing needs doing
roles/monit/tasks/main.yaml:1: [E403] [VERY_LOW] Package installs should not use latest
roles/mysql/tasks/main.yaml:106: [E601] [HIGH] Don't compare to literal True/False
roles/mysql/tasks/main.yaml:111: [E301] [HIGH] Commands should not change things if nothing needs doing
roles/mysql/tasks/main.yaml:111: [E305] [HIGH] Use shell only when shell functionality is required
roles/mysql/tasks/main.yaml:118: [E301] [HIGH] Commands should not change things if nothing needs doing
roles/mysql/tasks/main.yaml:12: [E305] [HIGH] Use shell only when shell functionality is required
roles/mysql/tasks/main.yaml:141: [E601] [HIGH] Don't compare to literal True/False
roles/mysql/tasks/main.yaml:155: [E601] [HIGH] Don't compare to literal True/False
roles/mysql/tasks/main.yaml:157: [E601] [HIGH] Don't compare to literal True/False
roles/mysql/tasks/main.yaml:16: [E601] [HIGH] Don't compare to literal True/False
roles/mysql/tasks/main.yaml:1: [E403] [VERY_LOW] Package installs should not use latest
roles/mysql/tasks/main.yaml:43: [E601] [HIGH] Don't compare to literal True/False
roles/mysql/tasks/main.yaml:54: [E601] [HIGH] Don't compare to literal True/False
roles/mysql/tasks/main.yaml:60: [E601] [HIGH] Don't compare to literal True/False
roles/mysql/tasks/main.yaml:64: [E601] [HIGH] Don't compare to literal True/False
roles/mysql/tasks/main.yaml:68: [E601] [HIGH] Don't compare to literal True/False
roles/mysql/tasks/main.yaml:70: [E403] [VERY_LOW] Package installs should not use latest
roles/mysql/tasks/main.yaml:75: [E601] [HIGH] Don't compare to literal True/False
roles/mysql/tasks/main.yaml:77: [E403] [VERY_LOW] Package installs should not use latest
roles/mysql/tasks/main.yaml:86: [E601] [HIGH] Don't compare to literal True/False
roles/mysql/tasks/main.yaml:93: [E601] [HIGH] Don't compare to literal True/False
roles/mysql/tasks/main.yaml:95: [E403] [VERY_LOW] Package installs should not use latest
roles/mysql/tasks/main.yaml:99: [E601] [HIGH] Don't compare to literal True/False
roles/nodylrepo/tasks/main.yaml:11: [E301] [HIGH] Commands should not change things if nothing needs doing
roles/nodylrepo/tasks/main.yaml:11: [E303] [HIGH] yum used in place of yum module
roles/nodylrepo/tasks/main.yaml:11: [E502] [MEDIUM] All tasks should be named
roles/ntp/tasks/main.yaml:1: [E502] [MEDIUM] All tasks should be named
roles/ntp/tasks/main.yaml:5: [E403] [VERY_LOW] Package installs should not use latest
roles/opendkim/tasks/main.yaml:102: [E601] [HIGH] Don't compare to literal True/False
roles/opendkim/tasks/main.yaml:151: [E202] [VERY_HIGH] Octal file permissions must contain leading zero or be a string
roles/opendkim/tasks/main.yaml:174: [E601] [HIGH] Don't compare to literal True/False
roles/opendkim/tasks/main.yaml:176: [E301] [HIGH] Commands should not change things if nothing needs doing
roles/opendkim/tasks/main.yaml:176: [E306] [MEDIUM] Shells that use pipes should set the pipefail option
roles/opendkim/tasks/main.yaml:196: [E601] [HIGH] Don't compare to literal True/False
roles/opendkim/tasks/main.yaml:198: [E301] [HIGH] Commands should not change things if nothing needs doing
roles/opendkim/tasks/main.yaml:198: [E305] [HIGH] Use shell only when shell functionality is required
roles/opendkim/tasks/main.yaml:19: [E601] [HIGH] Don't compare to literal True/False
roles/opendkim/tasks/main.yaml:201: [E301] [HIGH] Commands should not change things if nothing needs doing
roles/opendkim/tasks/main.yaml:201: [E302] [VERY_HIGH] chmod used in place of argument mode to file module
roles/opendkim/tasks/main.yaml:35: [E403] [VERY_LOW] Package installs should not use latest
roles/opendkim/tasks/main.yaml:47: [E601] [HIGH] Don't compare to literal True/False
roles/opendkim/tasks/main.yaml:67: [E601] [HIGH] Don't compare to literal True/False
roles/opendkim/tasks/main.yaml:74: [E601] [HIGH] Don't compare to literal True/False
roles/opendkim/tasks/main.yaml:81: [E601] [HIGH] Don't compare to literal True/False
roles/opendkim/tasks/main.yaml:88: [E601] [HIGH] Don't compare to literal True/False
roles/opendkim/tasks/main.yaml:95: [E601] [HIGH] Don't compare to literal True/False
roles/opendkim/tasks/multi.yaml:110: [E301] [HIGH] Commands should not change things if nothing needs doing
roles/opendkim/tasks/multi.yaml:110: [E302] [VERY_HIGH] chmod used in place of argument mode to file module
roles/opendkim/tasks/multi.yaml:115: [E202] [VERY_HIGH] Octal file permissions must contain leading zero or be a string
roles/opendkim/tasks/multi.yaml:123: [E301] [HIGH] Commands should not change things if nothing needs doing
roles/opendkim/tasks/multi.yaml:123: [E302] [VERY_HIGH] chmod used in place of argument mode to file module
roles/opendkim/tasks/multi.yaml:123: [E502] [MEDIUM] All tasks should be named
roles/opendkim/tasks/multi.yaml:136: [E601] [HIGH] Don't compare to literal True/False
roles/opendkim/tasks/multi.yaml:138: [E301] [HIGH] Commands should not change things if nothing needs doing
roles/opendkim/tasks/multi.yaml:138: [E306] [MEDIUM] Shells that use pipes should set the pipefail option
roles/opendkim/tasks/multi.yaml:14: [E204] [VERY_LOW] Lines should be no longer than 160 chars
roles/opendkim/tasks/multi.yaml:154: [E601] [HIGH] Don't compare to literal True/False
roles/opendkim/tasks/multi.yaml:16: [E601] [HIGH] Don't compare to literal True/False
roles/opendkim/tasks/multi.yaml:23: [E601] [HIGH] Don't compare to literal True/False
roles/opendkim/tasks/multi.yaml:30: [E601] [HIGH] Don't compare to literal True/False
roles/opendkim/tasks/multi.yaml:37: [E601] [HIGH] Don't compare to literal True/False
roles/opendkim/tasks/multi.yaml:44: [E601] [HIGH] Don't compare to literal True/False
roles/opendkim/tasks/multi.yaml:51: [E601] [HIGH] Don't compare to literal True/False
roles/openssl/tasks/main.yaml:1: [E301] [HIGH] Commands should not change things if nothing needs doing
roles/openssl/tasks/main.yaml:1: [E305] [HIGH] Use shell only when shell functionality is required
roles/openssl/tasks/main.yaml:21: [E305] [HIGH] Use shell only when shell functionality is required
roles/openssl/tasks/main.yaml:51: [E305] [HIGH] Use shell only when shell functionality is required
roles/openssl/tasks/main.yaml:80: [E305] [HIGH] Use shell only when shell functionality is required
roles/openssl/tasks/main.yaml:83: [E305] [HIGH] Use shell only when shell functionality is required
roles/pflogsumm/tasks/main.yaml:1: [E301] [HIGH] Commands should not change things if nothing needs doing
roles/pflogsumm/tasks/main.yaml:25: [E403] [VERY_LOW] Package installs should not use latest
roles/pflogsumm/tasks/main.yaml:35: [E403] [VERY_LOW] Package installs should not use latest
roles/pflogsumm/tasks/main.yaml:45: [E502] [MEDIUM] All tasks should be named
roles/pflogsumm/tasks/main.yaml:49: [E204] [VERY_LOW] Lines should be no longer than 160 chars
roles/pflogsumm/tasks/main.yaml:52: [E502] [MEDIUM] All tasks should be named
roles/pflogsumm/tasks/main.yaml:58: [E204] [VERY_LOW] Lines should be no longer than 160 chars
roles/pflogsumm/tasks/main.yaml:61: [E502] [MEDIUM] All tasks should be named
roles/php/tasks/main.yaml:114: [E601] [HIGH] Don't compare to literal True/False
roles/php/tasks/main.yaml:150: [E403] [VERY_LOW] Package installs should not use latest
roles/php/tasks/main.yaml:19: [E303] [HIGH] yum used in place of yum module
roles/php/tasks/main.yaml:19: [E305] [HIGH] Use shell only when shell functionality is required
roles/php/tasks/main.yaml:83: [E403] [VERY_LOW] Package installs should not use latest
roles/pip/tasks/main.yaml:121: [E305] [HIGH] Use shell only when shell functionality is required
roles/pip/tasks/main.yaml:137: [E305] [HIGH] Use shell only when shell functionality is required
roles/pip/tasks/main.yaml:157: [E601] [HIGH] Don't compare to literal True/False
roles/pip/tasks/main.yaml:180: [E601] [HIGH] Don't compare to literal True/False
roles/pip/tasks/main.yaml:197: [E601] [HIGH] Don't compare to literal True/False
roles/pip/tasks/main.yaml:30: [E305] [HIGH] Use shell only when shell functionality is required
roles/pip/tasks/main.yaml:46: [E305] [HIGH] Use shell only when shell functionality is required
roles/pip/tasks/main.yaml:66: [E601] [HIGH] Don't compare to literal True/False
roles/pip/tasks/main.yaml:89: [E601] [HIGH] Don't compare to literal True/False
roles/postfix/tasks/create_db.yaml:41: [E301] [HIGH] Commands should not change things if nothing needs doing
roles/postfix/tasks/main.yaml:110: [E601] [HIGH] Don't compare to literal True/False
roles/postfix/tasks/main.yaml:117: [E601] [HIGH] Don't compare to literal True/False
roles/postfix/tasks/main.yaml:126: [E601] [HIGH] Don't compare to literal True/False
roles/postfix/tasks/main.yaml:128: [E204] [VERY_LOW] Lines should be no longer than 160 chars
roles/postfix/tasks/main.yaml:134: [E601] [HIGH] Don't compare to literal True/False
roles/postfix/tasks/main.yaml:137: [E204] [VERY_LOW] Lines should be no longer than 160 chars
roles/postfix/tasks/main.yaml:144: [E601] [HIGH] Don't compare to literal True/False
roles/postfix/tasks/main.yaml:146: [E204] [VERY_LOW] Lines should be no longer than 160 chars
roles/postfix/tasks/main.yaml:153: [E601] [HIGH] Don't compare to literal True/False
roles/postfix/tasks/main.yaml:166: [E301] [HIGH] Commands should not change things if nothing needs doing
roles/postfix/tasks/main.yaml:169: [E301] [HIGH] Commands should not change things if nothing needs doing
roles/postfix/tasks/main.yaml:181: [E601] [HIGH] Don't compare to literal True/False
roles/postfix/tasks/main.yaml:1: [E301] [HIGH] Commands should not change things if nothing needs doing
roles/postfix/tasks/main.yaml:205: [E301] [HIGH] Commands should not change things if nothing needs doing
roles/postfix/tasks/main.yaml:211: [E502] [MEDIUM] All tasks should be named
roles/postfix/tasks/main.yaml:225: [E305] [HIGH] Use shell only when shell functionality is required
roles/postfix/tasks/main.yaml:22: [E601] [HIGH] Don't compare to literal True/False
roles/postfix/tasks/main.yaml:233: [E601] [HIGH] Don't compare to literal True/False
roles/postfix/tasks/main.yaml:29: [E601] [HIGH] Don't compare to literal True/False
roles/postfix/tasks/main.yaml:44: [E303] [HIGH] yum used in place of yum module
roles/postfix/tasks/main.yaml:46: [E601] [HIGH] Don't compare to literal True/False
roles/postfix/tasks/main.yaml:48: [E403] [VERY_LOW] Package installs should not use latest
roles/postfix/tasks/main.yaml:60: [E601] [HIGH] Don't compare to literal True/False
roles/postfix/tasks/main.yaml:62: [E403] [VERY_LOW] Package installs should not use latest
roles/postfix/tasks/main.yaml:78: [E403] [VERY_LOW] Package installs should not use latest
roles/postfix/tasks/main.yaml:83: [E601] [HIGH] Don't compare to literal True/False
roles/postfix/tasks/summarize.yaml:1: [E403] [VERY_LOW] Package installs should not use latest
roles/python37/tasks/main.yaml:100: [E305] [HIGH] Use shell only when shell functionality is required
roles/python37/tasks/main.yaml:115: [E305] [HIGH] Use shell only when shell functionality is required
roles/python37/tasks/main.yaml:118: [E601] [HIGH] Don't compare to literal True/False
roles/python37/tasks/main.yaml:128: [E601] [HIGH] Don't compare to literal True/False
roles/python37/tasks/main.yaml:14: [E301] [HIGH] Commands should not change things if nothing needs doing
roles/python37/tasks/main.yaml:14: [E305] [HIGH] Use shell only when shell functionality is required
roles/python37/tasks/main.yaml:26: [E403] [VERY_LOW] Package installs should not use latest
roles/python37/tasks/main.yaml:72: [E601] [HIGH] Don't compare to literal True/False
roles/python37/tasks/main.yaml:76: [E401] [MEDIUM] Git checkouts must contain explicit version
roles/python37/tasks/main.yaml:7: [E601] [HIGH] Don't compare to literal True/False
roles/restart_services/tasks/main.yaml:36: [E301] [HIGH] Commands should not change things if nothing needs doing
roles/restart_services/tasks/main.yaml:36: [E305] [HIGH] Use shell only when shell functionality is required
roles/restart_services/tasks/main.yaml:40: [E305] [HIGH] Use shell only when shell functionality is required
roles/rootpw/tasks/main.yaml:10: [E601] [HIGH] Don't compare to literal True/False
roles/rootpw/tasks/main.yaml:17: [E601] [HIGH] Don't compare to literal True/False
roles/rootpw/tasks/main.yaml:24: [E601] [HIGH] Don't compare to literal True/False
roles/rootpw/tasks/main.yaml:26: [E403] [VERY_LOW] Package installs should not use latest
roles/rootpw/tasks/main.yaml:37: [E301] [HIGH] Commands should not change things if nothing needs doing
roles/rootpw/tasks/main.yaml:37: [E305] [HIGH] Use shell only when shell functionality is required
roles/route53_popv/tasks/main.yaml:140: [E204] [VERY_LOW] Lines should be no longer than 160 chars
roles/route53_popv/tasks/main.yaml:156: [E204] [VERY_LOW] Lines should be no longer than 160 chars
roles/route53_popv/tasks/main.yaml:15: [E306] [MEDIUM] Shells that use pipes should set the pipefail option
roles/route53_popv/tasks/main.yaml:16: [E204] [VERY_LOW] Lines should be no longer than 160 chars
roles/route53_popv/tasks/main.yaml:172: [E204] [VERY_LOW] Lines should be no longer than 160 chars
roles/route53_popv/tasks/main.yaml:20: [E306] [MEDIUM] Shells that use pipes should set the pipefail option
roles/route53_popv/tasks/main.yaml:25: [E301] [HIGH] Commands should not change things if nothing needs doing
roles/route53_popv/tasks/main.yaml:25: [E306] [MEDIUM] Shells that use pipes should set the pipefail option
roles/route53_popv/tasks/main.yaml:30: [E502] [MEDIUM] All tasks should be named
roles/route53_popv/tasks/main.yaml:6: [E403] [VERY_LOW] Package installs should not use latest
roles/rsnapshot/tasks/main.yaml:138: [E601] [HIGH] Don't compare to literal True/False
roles/rsnapshot/tasks/main.yaml:53: [E601] [HIGH] Don't compare to literal True/False
roles/rsnapshot/tasks/main.yaml:57: [E403] [VERY_LOW] Package installs should not use latest
roles/rsnapshot/tasks/main.yaml:66: [E601] [HIGH] Don't compare to literal True/False
roles/rsnapshot/tasks/main.yaml:73: [E601] [HIGH] Don't compare to literal True/False
roles/rsnapshot/tasks/main.yaml:80: [E601] [HIGH] Don't compare to literal True/False
roles/rsnapshot/tasks/main.yaml:85: [E601] [HIGH] Don't compare to literal True/False
roles/rsnapshot/tasks/main.yaml:90: [E601] [HIGH] Don't compare to literal True/False
roles/rsyslog/tasks/create_db.yaml:15: [E601] [HIGH] Don't compare to literal True/False
roles/rsyslog/tasks/create_db.yaml:34: [E301] [HIGH] Commands should not change things if nothing needs doing
roles/rsyslog/tasks/create_db.yaml:37: [E301] [HIGH] Commands should not change things if nothing needs doing
roles/rsyslog/tasks/create_db.yaml:39: [E301] [HIGH] Commands should not change things if nothing needs doing
roles/rsyslog/tasks/create_db.yaml:39: [E502] [MEDIUM] All tasks should be named
roles/rsyslog/tasks/main.yaml:1: [E403] [VERY_LOW] Package installs should not use latest
roles/selinux/tasks/main.yaml:1: [E403] [VERY_LOW] Package installs should not use latest
roles/spamass/tasks/main.yaml:115: [E502] [MEDIUM] All tasks should be named
roles/spamass/tasks/main.yaml:13: [E403] [VERY_LOW] Package installs should not use latest
roles/spamass/tasks/main.yaml:142: [E403] [VERY_LOW] Package installs should not use latest
roles/spamass/tasks/main.yaml:172: [E403] [VERY_LOW] Package installs should not use latest
roles/spamass/tasks/main.yaml:177: [E301] [HIGH] Commands should not change things if nothing needs doing
roles/spamass/tasks/main.yaml:177: [E305] [HIGH] Use shell only when shell functionality is required
roles/spamass/tasks/main.yaml:180: [E403] [VERY_LOW] Package installs should not use latest
roles/spamass/tasks/main.yaml:190: [E301] [HIGH] Commands should not change things if nothing needs doing
roles/spamass/tasks/main.yaml:198: [E301] [HIGH] Commands should not change things if nothing needs doing
roles/spamass/tasks/main.yaml:20: [E403] [VERY_LOW] Package installs should not use latest
roles/spamass/tasks/main.yaml:31: [E601] [HIGH] Don't compare to literal True/False
roles/spamass/tasks/main.yaml:38: [E601] [HIGH] Don't compare to literal True/False
roles/spamass/tasks/main.yaml:45: [E601] [HIGH] Don't compare to literal True/False
roles/spamass/tasks/main.yaml:52: [E502] [MEDIUM] All tasks should be named
roles/sshkeys/tasks/main.yaml:104: [E601] [HIGH] Don't compare to literal True/False
roles/sshkeys/tasks/main.yaml:106: [E601] [HIGH] Don't compare to literal True/False
roles/sshkeys/tasks/main.yaml:14: [E601] [HIGH] Don't compare to literal True/False
roles/sshkeys/tasks/main.yaml:24: [E601] [HIGH] Don't compare to literal True/False
roles/sshkeys/tasks/main.yaml:84: [E305] [HIGH] Use shell only when shell functionality is required
roles/sshkeys/tasks/main.yaml:90: [E601] [HIGH] Don't compare to literal True/False
roles/sshkeys/tasks/main.yaml:97: [E601] [HIGH] Don't compare to literal True/False
roles/ssl/tasks/main.yaml:107: [E202] [VERY_HIGH] Octal file permissions must contain leading zero or be a string
roles/ssl/tasks/main.yaml:10: [E601] [HIGH] Don't compare to literal True/False
roles/ssl/tasks/main.yaml:114: [E601] [HIGH] Don't compare to literal True/False
roles/ssl/tasks/main.yaml:116: [E202] [VERY_HIGH] Octal file permissions must contain leading zero or be a string
roles/ssl/tasks/main.yaml:123: [E601] [HIGH] Don't compare to literal True/False
roles/ssl/tasks/main.yaml:125: [E301] [HIGH] Commands should not change things if nothing needs doing
roles/ssl/tasks/main.yaml:12: [E403] [VERY_LOW] Package installs should not use latest
roles/ssl/tasks/main.yaml:46: [E301] [HIGH] Commands should not change things if nothing needs doing
roles/ssl/tasks/main.yaml:46: [E305] [HIGH] Use shell only when shell functionality is required
roles/ssl/tasks/main.yaml:67: [E301] [HIGH] Commands should not change things if nothing needs doing
roles/ssl/tasks/main.yaml:67: [E306] [MEDIUM] Shells that use pipes should set the pipefail option
roles/ssl/tasks/main.yaml:68: [E204] [VERY_LOW] Lines should be no longer than 160 chars
roles/ssl/tasks/main.yaml:80: [E204] [VERY_LOW] Lines should be no longer than 160 chars
roles/swap/tasks/main.yaml:25: [E305] [HIGH] Use shell only when shell functionality is required
roles/swap/tasks/main.yaml:28: [E305] [HIGH] Use shell only when shell functionality is required
roles/swap/tasks/main.yaml:29: [E204] [VERY_LOW] Lines should be no longer than 160 chars
roles/swap/tasks/main.yaml:51: [E305] [HIGH] Use shell only when shell functionality is required
roles/swap/tasks/main.yaml:64: [E305] [HIGH] Use shell only when shell functionality is required
roles/swap/tasks/main.yaml:67: [E305] [HIGH] Use shell only when shell functionality is required
roles/swap/tasks/main.yaml:70: [E305] [HIGH] Use shell only when shell functionality is required
roles/swap/tasks/main.yaml:86: [E305] [HIGH] Use shell only when shell functionality is required
roles/testmailserv/tasks/main.yaml:18: [E204] [VERY_LOW] Lines should be no longer than 160 chars
roles/testmailserv/tasks/main.yaml:1: [E301] [HIGH] Commands should not change things if nothing needs doing
roles/testmailserv/tasks/main.yaml:1: [E305] [HIGH] Use shell only when shell functionality is required
roles/testmailserv/tasks/main.yaml:26: [E306] [MEDIUM] Shells that use pipes should set the pipefail option
roles/testmailserv/tasks/main.yaml:27: [E204] [VERY_LOW] Lines should be no longer than 160 chars
roles/testmailserv/tasks/main.yaml:29: [E601] [HIGH] Don't compare to literal True/False
roles/testmailserv/tasks/main.yaml:31: [E306] [MEDIUM] Shells that use pipes should set the pipefail option
roles/testmailserv/tasks/main.yaml:32: [E204] [VERY_LOW] Lines should be no longer than 160 chars
roles/testmailserv/tasks/main.yaml:33: [E601] [HIGH] Don't compare to literal True/False
roles/testmailserv/tasks/main.yaml:35: [E301] [HIGH] Commands should not change things if nothing needs doing
roles/testmailserv/tasks/main.yaml:35: [E305] [HIGH] Use shell only when shell functionality is required
roles/testmailserv/tasks/main.yaml:39: [E301] [HIGH] Commands should not change things if nothing needs doing
roles/testmailserv/tasks/main.yaml:39: [E305] [HIGH] Use shell only when shell functionality is required
roles/testmailserv/tasks/main.yaml:39: [E502] [MEDIUM] All tasks should be named
roles/testmailserv/tasks/main.yaml:5: [E301] [HIGH] Commands should not change things if nothing needs doing
roles/testmailserv/tasks/main.yaml:5: [E306] [MEDIUM] Shells that use pipes should set the pipefail option
roles/testmailserv/tasks/main.yaml:6: [E204] [VERY_LOW] Lines should be no longer than 160 chars
roles/tripwire/tasks/inst_tripwire.yaml:10: [E403] [VERY_LOW] Package installs should not use latest
roles/tripwire/tasks/inst_tripwire.yaml:15: [E502] [MEDIUM] All tasks should be named
roles/tripwire/tasks/inst_tripwire.yaml:25: [E305] [HIGH] Use shell only when shell functionality is required
roles/tripwire/tasks/inst_tripwire.yaml:42: [E502] [MEDIUM] All tasks should be named
roles/tripwire/tasks/inst_tripwire.yaml:47: [E305] [HIGH] Use shell only when shell functionality is required
roles/tripwire/tasks/inst_tripwire.yaml:55: [E305] [HIGH] Use shell only when shell functionality is required
roles/tripwire/tasks/inst_tripwire.yaml:75: [E601] [HIGH] Don't compare to literal True/False
roles/tripwire/tasks/main.yaml:15: [E601] [HIGH] Don't compare to literal True/False
roles/tripwire/tasks/main.yaml:21: [E601] [HIGH] Don't compare to literal True/False
roles/tripwire/tasks/main.yaml:30: [E601] [HIGH] Don't compare to literal True/False
roles/tripwire/tasks/main.yaml:38: [E601] [HIGH] Don't compare to literal True/False
roles/tripwire/tasks/main.yaml:9: [E601] [HIGH] Don't compare to literal True/False
roles/usermin/tasks/main.yaml:24: [E601] [HIGH] Don't compare to literal True/False
roles/usermin/tasks/main.yaml:30: [E601] [HIGH] Don't compare to literal True/False
roles/usermin/tasks/main.yaml:33: [E204] [VERY_LOW] Lines should be no longer than 160 chars
roles/usermin/tasks/main.yaml:34: [E601] [HIGH] Don't compare to literal True/False
roles/usermin/tasks/main.yaml:38: [E204] [VERY_LOW] Lines should be no longer than 160 chars
roles/usermin/tasks/main.yaml:39: [E601] [HIGH] Don't compare to literal True/False
roles/usermin/tasks/main.yaml:58: [E601] [HIGH] Don't compare to literal True/False
roles/usermin/tasks/main.yaml:64: [E601] [HIGH] Don't compare to literal True/False
roles/usermin/tasks/main.yaml:6: [E601] [HIGH] Don't compare to literal True/False
roles/usermin/tasks/main.yaml:71: [E601] [HIGH] Don't compare to literal True/False
roles/usermin/tasks/main.yaml:73: [E306] [MEDIUM] Shells that use pipes should set the pipefail option
roles/usermin/tasks/main.yaml:77: [E601] [HIGH] Don't compare to literal True/False
roles/usermin/tasks/main.yaml:8: [E403] [VERY_LOW] Package installs should not use latest
roles/utils/tasks/main.yaml:3: [E403] [VERY_LOW] Package installs should not use latest
roles/utils/tasks/main.yaml:57: [E301] [HIGH] Commands should not change things if nothing needs doing
roles/utils/tasks/main.yaml:63: [E301] [HIGH] Commands should not change things if nothing needs doing
roles/utils/tasks/main.yaml:66: [E403] [VERY_LOW] Package installs should not use latest
roles/vimrc/tasks/main.yaml:12: [E301] [HIGH] Commands should not change things if nothing needs doing
roles/vimrc/tasks/main.yaml:12: [E305] [HIGH] Use shell only when shell functionality is required
roles/vimrc/tasks/main.yaml:12: [E502] [MEDIUM] All tasks should be named
roles/virtualmin/tasks/main.yaml:11: [E201] [INFO] Trailing whitespace
roles/virtualmin/tasks/main.yaml:12: [E201] [INFO] Trailing whitespace
roles/virtualmin/tasks/main.yaml:15: [E201] [INFO] Trailing whitespace
roles/virtualmin/tasks/main.yaml:16: [E305] [HIGH] Use shell only when shell functionality is required
roles/virtualmin/tasks/main.yaml:18: [E201] [INFO] Trailing whitespace
roles/virtualmin/tasks/main.yaml:2: [E201] [INFO] Trailing whitespace
roles/virtualmin/tasks/main.yaml:31: [E403] [VERY_LOW] Package installs should not use latest
roles/virtualmin/tasks/main.yaml:32: [E201] [INFO] Trailing whitespace
roles/virtualmin/tasks/main.yaml:34: [E201] [INFO] Trailing whitespace
roles/virtualmin/tasks/main.yaml:3: [E201] [INFO] Trailing whitespace
roles/virtualmin/tasks/main.yaml:3: [E601] [HIGH] Don't compare to literal True/False
roles/virtualmin/tasks/main.yaml:6: [E201] [INFO] Trailing whitespace
roles/webhost/tasks/main.yaml:134: [E102] [HIGH] No Jinja2 in when
roles/webhost/tasks/main.yaml:1: [E403] [VERY_LOW] Package installs should not use latest
roles/webhost/tasks/main.yaml:210: [E301] [HIGH] Commands should not change things if nothing needs doing
roles/webhost/tasks/main.yaml:35: [E102] [HIGH] No Jinja2 in when
roles/webhost/tasks/main.yaml:60: [E301] [HIGH] Commands should not change things if nothing needs doing
roles/webhost/tasks/main.yaml:60: [E302] [VERY_HIGH] chmod used in place of argument mode to file module
roles/webhost/tasks/main.yaml:82: [E102] [HIGH] No Jinja2 in when
roles/webmin/tasks/main.yaml:101: [E301] [HIGH] Commands should not change things if nothing needs doing
roles/webmin/tasks/main.yaml:101: [E303] [HIGH] service used in place of service module
roles/webmin/tasks/main.yaml:104: [E301] [HIGH] Commands should not change things if nothing needs doing
roles/webmin/tasks/main.yaml:104: [E303] [HIGH] chkconfig used in place of service module
roles/webmin/tasks/main.yaml:107: [E403] [VERY_LOW] Package installs should not use latest
roles/webmin/tasks/main.yaml:26: [E601] [HIGH] Don't compare to literal True/False
roles/webmin/tasks/main.yaml:32: [E601] [HIGH] Don't compare to literal True/False
roles/webmin/tasks/main.yaml:57: [E403] [VERY_LOW] Package installs should not use latest
roles/webmin/tasks/main.yaml:5: [E601] [HIGH] Don't compare to literal True/False
roles/webmin/tasks/main.yaml:62: [E601] [HIGH] Don't compare to literal True/False
roles/webmin/tasks/main.yaml:71: [E601] [HIGH] Don't compare to literal True/False
roles/webmin/tasks/main.yaml:7: [E403] [VERY_LOW] Package installs should not use latest
roles/webmin/tasks/main.yaml:83: [E601] [HIGH] Don't compare to literal True/False
roles/webmin/tasks/main.yaml:90: [E601] [HIGH] Don't compare to literal True/False
roles/webmin/tasks/main.yaml:94: [E204] [VERY_LOW] Lines should be no longer than 160 chars
roles/webmin/tasks/main.yaml:95: [E601] [HIGH] Don't compare to literal True/False
roles/webmin/tasks/main.yaml:98: [E204] [VERY_LOW] Lines should be no longer than 160 chars
roles/webmin/tasks/main.yaml:99: [E601] [HIGH] Don't compare to literal True/False
roles/wordpress/tasks/main.yaml:130: [E301] [HIGH] Commands should not change things if nothing needs doing
roles/wordpress/tasks/main.yaml:145: [E301] [HIGH] Commands should not change things if nothing needs doing
roles/wordpress/tasks/main.yaml:145: [E302] [VERY_HIGH] chmod used in place of argument mode to file module
roles/wordpress/tasks/main.yaml:2: [E403] [VERY_LOW] Package installs should not use latest
roles/wordpress/tasks/main.yaml:41: [E301] [HIGH] Commands should not change things if nothing needs doing
roles/wordpress/tasks/main.yaml:41: [E303] [HIGH] rsync used in place of synchronize module
roles/yumupdate/tasks/main.yaml:35: [E301] [HIGH] Commands should not change things if nothing needs doing
roles/yumupdate/tasks/main.yaml:35: [E306] [MEDIUM] Shells that use pipes should set the pipefail option
roles/yumupdate/tasks/main.yaml:50: [E305] [HIGH] Use shell only when shell functionality is required
roles/yumupdate/tasks/main.yaml:54: [E201] [INFO] Trailing whitespace
roles/yumupdate/tasks/main.yaml:57: [E305] [HIGH] Use shell only when shell functionality is required
roles/yumupdate/tasks/main.yaml:66: [E305] [HIGH] Use shell only when shell functionality is required
roles/yumupdate/tasks/main.yaml:77: [E502] [MEDIUM] All tasks should be named
roles/yumupdate/tasks/main.yaml:84: [E601] [HIGH] Don't compare to literal True/False
roles/yumupdate/tasks/main.yaml:86: [E502] [MEDIUM] All tasks should be named
roles/yumupdate/tasks/main.yaml:93: [E601] [HIGH] Don't compare to literal True/False
roles/zabbix_agent/tasks/main.yaml:14: [E601] [HIGH] Don't compare to literal True/False
roles/zabbix_agent/tasks/main.yaml:20: [E601] [HIGH] Don't compare to literal True/False
roles/zabbix_agent/tasks/main.yaml:22: [E403] [VERY_LOW] Package installs should not use latest
roles/zabbix_agent/tasks/main.yaml:33: [E403] [VERY_LOW] Package installs should not use latest
roles/zabbix_agent/tasks/main.yaml:52: [E301] [HIGH] Commands should not change things if nothing needs doing
roles/zabbix_agent/tasks/main.yaml:52: [E302] [VERY_HIGH] ln used in place of argument state=link to file module
roles/zabbix_agent/tasks/main.yaml:55: [E301] [HIGH] Commands should not change things if nothing needs doing
roles/zabbix_agent/tasks/main.yaml:60: [E301] [HIGH] Commands should not change things if nothing needs doing
roles/zsh/tasks/main.yaml:21: [E601] [HIGH] Don't compare to literal True/False
roles/zsh/tasks/main.yaml:23: [E403] [VERY_LOW] Package installs should not use latest
roles/zsh/tasks/main.yaml:31: [E301] [HIGH] Commands should not change things if nothing needs doing
roles/zsh/tasks/main.yaml:36: [E601] [HIGH] Don't compare to literal True/False
roles/zsh/tasks/main.yaml:38: [E401] [MEDIUM] Git checkouts must contain explicit version
roles/zsh/tasks/main.yaml:50: [E301] [HIGH] Commands should not change things if nothing needs doing
roles/zsh/tasks/main.yaml:50: [E305] [HIGH] Use shell only when shell functionality is required
